{
  "mongoURI": "mongodb://devmates:d3vm4t3s@fenomedia.de:28017/devmates?authSource=devmates",
  "jwtSecret": "mysecrettoken",
  "githubClientID": "75c1b51e760012e22763",
  "githubSecret": "5db729b857802053240e78dd2d0e1d482aebf9d9",
  "bitbucketClientID": "4aBtFvhgp8u9a3sTBB",
  "bitbucketSecret": "5jFJNJ932C4BqBc2SLmjKqj4mjY4Ynum"
}
